06:59:14 PM crashed with exit code 0. Restarting... 
06:59:15 PM crashed with exit code 0. Restarting... 
06:59:16 PM crashed with exit code 0. Restarting... 
06:59:17 PM crashed with exit code 0. Restarting... 
06:59:18 PM crashed with exit code 0. Restarting... 
06:59:19 PM crashed with exit code 0. Restarting... 
06:59:20 PM crashed with exit code 0. Restarting... 
06:59:21 PM crashed with exit code 0. Restarting... 
06:59:22 PM crashed with exit code 0. Restarting... 
06:59:23 PM crashed with exit code 0. Restarting... 
06:59:24 PM crashed with exit code 0. Restarting... 
06:59:26 PM crashed with exit code 0. Restarting... 
06:59:27 PM crashed with exit code 0. Restarting... 
06:59:28 PM crashed with exit code 0. Restarting... 
06:59:29 PM crashed with exit code 0. Restarting... 
06:59:30 PM crashed with exit code 0. Restarting... 
06:59:31 PM crashed with exit code 0. Restarting... 
06:59:32 PM crashed with exit code 0. Restarting... 
06:59:33 PM crashed with exit code 0. Restarting... 
06:59:34 PM crashed with exit code 0. Restarting... 
06:59:35 PM crashed with exit code 0. Restarting... 
06:59:36 PM crashed with exit code 0. Restarting... 
06:59:38 PM crashed with exit code 0. Restarting... 
06:59:39 PM crashed with exit code 0. Restarting... 
06:59:40 PM crashed with exit code 0. Restarting... 
06:59:41 PM crashed with exit code 0. Restarting... 
06:59:42 PM crashed with exit code 0. Restarting... 
06:59:43 PM crashed with exit code 0. Restarting... 
06:59:44 PM crashed with exit code 0. Restarting... 
06:59:45 PM crashed with exit code 0. Restarting... 
06:59:46 PM crashed with exit code 0. Restarting... 
06:59:47 PM crashed with exit code 0. Restarting... 
06:59:49 PM crashed with exit code 0. Restarting... 
06:59:50 PM crashed with exit code 0. Restarting... 
06:59:51 PM crashed with exit code 0. Restarting... 
06:59:52 PM crashed with exit code 0. Restarting... 
06:59:53 PM crashed with exit code 0. Restarting... 
06:59:54 PM crashed with exit code 0. Restarting... 
06:59:55 PM crashed with exit code 0. Restarting... 
06:59:56 PM crashed with exit code 0. Restarting... 
06:59:57 PM crashed with exit code 0. Restarting... 
06:59:58 PM crashed with exit code 0. Restarting... 
06:59:59 PM crashed with exit code 0. Restarting... 
07:00:01 PM crashed with exit code 0. Restarting... 
07:00:02 PM crashed with exit code 0. Restarting... 
07:00:03 PM crashed with exit code 0. Restarting... 
07:00:04 PM crashed with exit code 0. Restarting... 
07:00:05 PM crashed with exit code 0. Restarting... 
07:00:06 PM crashed with exit code 0. Restarting... 
07:00:07 PM crashed with exit code 0. Restarting... 
07:00:08 PM crashed with exit code 0. Restarting... 
07:00:09 PM crashed with exit code 0. Restarting... 
07:00:10 PM crashed with exit code 0. Restarting... 
07:00:11 PM crashed with exit code 0. Restarting... 
07:00:13 PM crashed with exit code 0. Restarting... 
07:00:14 PM crashed with exit code 0. Restarting... 
07:00:15 PM crashed with exit code 0. Restarting... 
07:00:16 PM crashed with exit code 0. Restarting... 
07:00:17 PM crashed with exit code 0. Restarting... 
07:00:18 PM crashed with exit code 0. Restarting... 
07:00:19 PM crashed with exit code 0. Restarting... 
07:00:20 PM crashed with exit code 0. Restarting... 
07:00:21 PM crashed with exit code 0. Restarting... 
07:00:22 PM crashed with exit code 0. Restarting... 
07:00:23 PM crashed with exit code 0. Restarting... 
07:00:25 PM crashed with exit code 0. Restarting... 
07:00:26 PM crashed with exit code 0. Restarting... 
07:00:27 PM crashed with exit code 0. Restarting... 
07:00:28 PM crashed with exit code 0. Restarting... 
07:00:29 PM crashed with exit code 0. Restarting... 
07:00:30 PM crashed with exit code 0. Restarting... 
07:00:31 PM crashed with exit code 0. Restarting... 
07:00:32 PM crashed with exit code 0. Restarting... 
07:00:33 PM crashed with exit code 0. Restarting... 
07:00:34 PM crashed with exit code 0. Restarting... 
07:00:35 PM crashed with exit code 0. Restarting... 
07:00:37 PM crashed with exit code 0. Restarting... 
07:00:38 PM crashed with exit code 0. Restarting... 
07:00:39 PM crashed with exit code 0. Restarting... 
07:00:40 PM crashed with exit code 0. Restarting... 
07:00:41 PM crashed with exit code 0. Restarting... 
07:00:42 PM crashed with exit code 0. Restarting... 
07:00:43 PM crashed with exit code 0. Restarting... 
07:00:44 PM crashed with exit code 0. Restarting... 
07:00:45 PM crashed with exit code 0. Restarting... 
07:00:46 PM crashed with exit code 0. Restarting... 
07:00:47 PM crashed with exit code 0. Restarting... 
07:00:49 PM crashed with exit code 0. Restarting... 
07:00:50 PM crashed with exit code 0. Restarting... 
07:00:51 PM crashed with exit code 0. Restarting... 
07:00:52 PM crashed with exit code 0. Restarting... 
07:00:53 PM crashed with exit code 0. Restarting... 
07:00:54 PM crashed with exit code 0. Restarting... 
07:00:55 PM crashed with exit code 0. Restarting... 
07:00:56 PM crashed with exit code 0. Restarting... 
07:00:57 PM crashed with exit code 0. Restarting... 
07:00:58 PM crashed with exit code 0. Restarting... 
07:01:00 PM crashed with exit code 0. Restarting... 
07:01:01 PM crashed with exit code 0. Restarting... 
07:01:02 PM crashed with exit code 0. Restarting... 
07:01:03 PM crashed with exit code 0. Restarting... 
07:01:04 PM crashed with exit code 0. Restarting... 
07:01:05 PM crashed with exit code 0. Restarting... 
07:01:06 PM crashed with exit code 0. Restarting... 
07:01:07 PM crashed with exit code 0. Restarting... 
07:01:08 PM crashed with exit code 0. Restarting... 
07:01:09 PM crashed with exit code 0. Restarting... 
07:01:10 PM crashed with exit code 0. Restarting... 
07:01:12 PM crashed with exit code 0. Restarting... 
07:01:13 PM crashed with exit code 0. Restarting... 
07:01:14 PM crashed with exit code 0. Restarting... 
07:01:15 PM crashed with exit code 0. Restarting... 
07:01:16 PM crashed with exit code 0. Restarting... 
07:01:17 PM crashed with exit code 0. Restarting... 
07:01:18 PM crashed with exit code 0. Restarting... 
07:01:19 PM crashed with exit code 0. Restarting... 
07:01:20 PM crashed with exit code 0. Restarting... 
07:01:21 PM crashed with exit code 0. Restarting... 
07:01:23 PM crashed with exit code 0. Restarting... 
07:01:24 PM crashed with exit code 0. Restarting... 
07:01:25 PM crashed with exit code 0. Restarting... 
07:01:26 PM crashed with exit code 0. Restarting... 
07:01:27 PM crashed with exit code 0. Restarting... 
07:01:28 PM crashed with exit code 0. Restarting... 
07:01:29 PM crashed with exit code 0. Restarting... 
07:01:30 PM crashed with exit code 0. Restarting... 
07:01:31 PM crashed with exit code 0. Restarting... 
07:01:32 PM crashed with exit code 0. Restarting... 
07:01:33 PM crashed with exit code 0. Restarting... 
07:01:35 PM crashed with exit code 0. Restarting... 
07:01:36 PM crashed with exit code 0. Restarting... 
07:01:37 PM crashed with exit code 0. Restarting... 
07:01:38 PM crashed with exit code 0. Restarting... 
07:01:39 PM crashed with exit code 0. Restarting... 
07:01:40 PM crashed with exit code 0. Restarting... 
07:01:41 PM crashed with exit code 0. Restarting... 
07:01:42 PM crashed with exit code 0. Restarting... 
07:01:43 PM crashed with exit code 0. Restarting... 
07:01:44 PM crashed with exit code 0. Restarting... 
07:01:45 PM crashed with exit code 0. Restarting... 
07:01:47 PM crashed with exit code 0. Restarting... 
07:01:48 PM crashed with exit code 0. Restarting... 
07:01:49 PM crashed with exit code 0. Restarting... 
07:01:50 PM crashed with exit code 0. Restarting... 
07:01:51 PM crashed with exit code 0. Restarting... 
07:01:52 PM crashed with exit code 0. Restarting... 
07:01:53 PM crashed with exit code 0. Restarting... 
07:01:54 PM crashed with exit code 0. Restarting... 
07:01:55 PM crashed with exit code 0. Restarting... 
07:01:56 PM crashed with exit code 0. Restarting... 
07:01:57 PM crashed with exit code 0. Restarting... 
07:01:59 PM crashed with exit code 0. Restarting... 
07:02:00 PM crashed with exit code 0. Restarting... 
07:02:01 PM crashed with exit code 0. Restarting... 
07:02:02 PM crashed with exit code 0. Restarting... 
07:02:03 PM crashed with exit code 0. Restarting... 
07:02:04 PM crashed with exit code 0. Restarting... 
07:02:05 PM crashed with exit code 0. Restarting... 
07:02:06 PM crashed with exit code 0. Restarting... 
07:02:07 PM crashed with exit code 0. Restarting... 
07:02:08 PM crashed with exit code 0. Restarting... 
07:02:09 PM crashed with exit code 0. Restarting... 
07:02:11 PM crashed with exit code 0. Restarting... 
07:02:12 PM crashed with exit code 0. Restarting... 
07:02:13 PM crashed with exit code 0. Restarting... 
07:02:14 PM crashed with exit code 0. Restarting... 
07:02:15 PM crashed with exit code 0. Restarting... 
07:02:16 PM crashed with exit code 0. Restarting... 
07:02:17 PM crashed with exit code 0. Restarting... 
07:02:18 PM crashed with exit code 0. Restarting... 
07:02:19 PM crashed with exit code 0. Restarting... 
07:02:20 PM crashed with exit code 0. Restarting... 
07:02:21 PM crashed with exit code 0. Restarting... 
07:02:23 PM crashed with exit code 0. Restarting... 
07:02:24 PM crashed with exit code 0. Restarting... 
07:02:25 PM crashed with exit code 0. Restarting... 
07:02:26 PM crashed with exit code 0. Restarting... 
07:02:27 PM crashed with exit code 0. Restarting... 
07:02:28 PM crashed with exit code 0. Restarting... 
07:02:29 PM crashed with exit code 0. Restarting... 
07:02:30 PM crashed with exit code 0. Restarting... 
07:02:31 PM crashed with exit code 0. Restarting... 
07:02:32 PM crashed with exit code 0. Restarting... 
07:02:33 PM crashed with exit code 0. Restarting... 
07:02:34 PM crashed with exit code 0. Restarting... 
07:02:36 PM crashed with exit code 0. Restarting... 
07:02:37 PM crashed with exit code 0. Restarting... 
07:02:38 PM crashed with exit code 0. Restarting... 
07:02:39 PM crashed with exit code 0. Restarting... 
07:02:40 PM crashed with exit code 0. Restarting... 
07:02:41 PM crashed with exit code 0. Restarting... 
07:02:42 PM crashed with exit code 0. Restarting... 
07:02:43 PM crashed with exit code 0. Restarting... 
07:02:44 PM crashed with exit code 0. Restarting... 
07:02:45 PM crashed with exit code 0. Restarting... 
07:02:46 PM crashed with exit code 0. Restarting... 
07:02:48 PM crashed with exit code 0. Restarting... 
07:02:49 PM crashed with exit code 0. Restarting... 
07:02:50 PM crashed with exit code 0. Restarting... 
07:02:51 PM crashed with exit code 0. Restarting... 
07:02:52 PM crashed with exit code 0. Restarting... 
07:02:53 PM crashed with exit code 0. Restarting... 
07:02:54 PM crashed with exit code 0. Restarting... 
07:02:55 PM crashed with exit code 0. Restarting... 
07:02:56 PM crashed with exit code 0. Restarting... 
07:02:57 PM crashed with exit code 0. Restarting... 
07:02:59 PM crashed with exit code 0. Restarting... 
07:03:00 PM crashed with exit code 0. Restarting... 
07:03:01 PM crashed with exit code 0. Restarting... 
07:03:02 PM crashed with exit code 0. Restarting... 
07:03:03 PM crashed with exit code 0. Restarting... 
07:03:04 PM crashed with exit code 0. Restarting... 
07:03:05 PM crashed with exit code 0. Restarting... 
07:03:06 PM crashed with exit code 0. Restarting... 
07:03:07 PM crashed with exit code 0. Restarting... 
07:03:08 PM crashed with exit code 0. Restarting... 
07:03:10 PM crashed with exit code 0. Restarting... 
07:03:11 PM crashed with exit code 0. Restarting... 
07:03:12 PM crashed with exit code 0. Restarting... 
07:03:13 PM crashed with exit code 0. Restarting... 
07:03:14 PM crashed with exit code 0. Restarting... 
07:03:15 PM crashed with exit code 0. Restarting... 
07:03:16 PM crashed with exit code 0. Restarting... 
07:03:17 PM crashed with exit code 0. Restarting... 
07:03:18 PM crashed with exit code 0. Restarting... 
07:03:19 PM crashed with exit code 0. Restarting... 
07:03:20 PM crashed with exit code 0. Restarting... 
07:03:21 PM crashed with exit code 0. Restarting... 
07:03:23 PM crashed with exit code 0. Restarting... 
07:03:24 PM crashed with exit code 0. Restarting... 
07:03:25 PM crashed with exit code 0. Restarting... 
07:03:26 PM crashed with exit code 0. Restarting... 
07:03:27 PM crashed with exit code 0. Restarting... 
07:03:28 PM crashed with exit code 0. Restarting... 
07:03:29 PM crashed with exit code 0. Restarting... 
07:03:30 PM crashed with exit code 0. Restarting... 
07:03:31 PM crashed with exit code 0. Restarting... 
07:03:32 PM crashed with exit code 0. Restarting... 
07:03:34 PM crashed with exit code 0. Restarting... 
07:03:35 PM crashed with exit code 0. Restarting... 
07:03:36 PM crashed with exit code 0. Restarting... 
07:03:37 PM crashed with exit code 0. Restarting... 
07:03:38 PM crashed with exit code 0. Restarting... 
07:03:39 PM crashed with exit code 0. Restarting... 
07:03:40 PM crashed with exit code 0. Restarting... 
07:03:41 PM crashed with exit code 0. Restarting... 
07:03:42 PM crashed with exit code 0. Restarting... 
07:03:43 PM crashed with exit code 0. Restarting... 
07:03:44 PM crashed with exit code 0. Restarting... 
07:03:45 PM crashed with exit code 0. Restarting... 
07:03:47 PM crashed with exit code 0. Restarting... 
07:03:48 PM crashed with exit code 0. Restarting... 
07:03:49 PM crashed with exit code 0. Restarting... 
07:03:50 PM crashed with exit code 0. Restarting... 
07:03:51 PM crashed with exit code 0. Restarting... 
07:03:52 PM crashed with exit code 0. Restarting... 
07:03:53 PM crashed with exit code 0. Restarting... 
07:03:54 PM crashed with exit code 0. Restarting... 
07:03:55 PM crashed with exit code 0. Restarting... 
07:03:56 PM crashed with exit code 0. Restarting... 
07:03:58 PM crashed with exit code 0. Restarting... 
07:03:59 PM crashed with exit code 0. Restarting... 
07:04:00 PM crashed with exit code 0. Restarting... 
07:04:01 PM crashed with exit code 0. Restarting... 
07:04:02 PM crashed with exit code 0. Restarting... 
07:04:03 PM crashed with exit code 0. Restarting... 
07:04:04 PM crashed with exit code 0. Restarting... 
07:04:05 PM crashed with exit code 0. Restarting... 
07:04:06 PM crashed with exit code 0. Restarting... 
07:04:07 PM crashed with exit code 0. Restarting... 
07:04:08 PM crashed with exit code 0. Restarting... 
07:04:10 PM crashed with exit code 0. Restarting... 
07:04:11 PM crashed with exit code 0. Restarting... 
07:04:12 PM crashed with exit code 0. Restarting... 
07:04:13 PM crashed with exit code 0. Restarting... 
07:04:14 PM crashed with exit code 0. Restarting... 
07:04:15 PM crashed with exit code 0. Restarting... 
07:04:16 PM crashed with exit code 0. Restarting... 
07:04:17 PM crashed with exit code 0. Restarting... 
07:04:18 PM crashed with exit code 0. Restarting... 
07:04:19 PM crashed with exit code 0. Restarting... 
07:04:20 PM crashed with exit code 0. Restarting... 
07:04:22 PM crashed with exit code 0. Restarting... 
07:04:23 PM crashed with exit code 0. Restarting... 
07:04:24 PM crashed with exit code 0. Restarting... 
07:04:25 PM crashed with exit code 0. Restarting... 
07:04:26 PM crashed with exit code 0. Restarting... 
07:04:27 PM crashed with exit code 0. Restarting... 
07:04:28 PM crashed with exit code 0. Restarting... 
07:04:29 PM crashed with exit code 0. Restarting... 
07:04:30 PM crashed with exit code 0. Restarting... 
07:04:31 PM crashed with exit code 0. Restarting... 
07:04:32 PM crashed with exit code 0. Restarting... 
07:04:34 PM crashed with exit code 0. Restarting... 
07:04:35 PM crashed with exit code 0. Restarting... 
07:04:36 PM crashed with exit code 0. Restarting... 
07:04:37 PM crashed with exit code 0. Restarting... 
07:04:38 PM crashed with exit code 0. Restarting... 
07:04:39 PM crashed with exit code 0. Restarting... 
07:04:40 PM crashed with exit code 0. Restarting... 
07:04:41 PM crashed with exit code 0. Restarting... 
07:04:42 PM crashed with exit code 0. Restarting... 
07:04:43 PM crashed with exit code 0. Restarting... 
07:04:44 PM crashed with exit code 0. Restarting... 
07:04:46 PM crashed with exit code 0. Restarting... 
07:04:47 PM crashed with exit code 0. Restarting... 
07:04:48 PM crashed with exit code 0. Restarting... 
07:04:49 PM crashed with exit code 0. Restarting... 
07:04:50 PM crashed with exit code 0. Restarting... 
07:04:51 PM crashed with exit code 0. Restarting... 
07:04:52 PM crashed with exit code 0. Restarting... 
07:04:53 PM crashed with exit code 0. Restarting... 
07:04:54 PM crashed with exit code 0. Restarting... 
07:04:55 PM crashed with exit code 0. Restarting... 
07:04:57 PM crashed with exit code 0. Restarting... 
07:04:58 PM crashed with exit code 0. Restarting... 
07:04:59 PM crashed with exit code 0. Restarting... 
07:05:00 PM crashed with exit code 0. Restarting... 
07:05:01 PM crashed with exit code 0. Restarting... 
07:05:02 PM crashed with exit code 0. Restarting... 
07:05:03 PM crashed with exit code 0. Restarting... 
07:05:04 PM crashed with exit code 0. Restarting... 
07:05:05 PM crashed with exit code 0. Restarting... 
07:05:06 PM crashed with exit code 0. Restarting... 
07:05:07 PM crashed with exit code 0. Restarting... 
07:05:09 PM crashed with exit code 0. Restarting... 
07:05:10 PM crashed with exit code 0. Restarting... 
07:05:11 PM crashed with exit code 0. Restarting... 
07:05:12 PM crashed with exit code 0. Restarting... 
07:05:13 PM crashed with exit code 0. Restarting... 
07:05:14 PM crashed with exit code 0. Restarting... 
07:05:15 PM crashed with exit code 0. Restarting... 
07:05:16 PM crashed with exit code 0. Restarting... 
07:05:17 PM crashed with exit code 0. Restarting... 
07:05:18 PM crashed with exit code 0. Restarting... 
07:05:19 PM crashed with exit code 0. Restarting... 
07:05:21 PM crashed with exit code 0. Restarting... 
07:05:22 PM crashed with exit code 0. Restarting... 
07:05:23 PM crashed with exit code 0. Restarting... 
07:05:24 PM crashed with exit code 0. Restarting... 
07:05:25 PM crashed with exit code 0. Restarting... 
07:05:26 PM crashed with exit code 0. Restarting... 
07:05:27 PM crashed with exit code 0. Restarting... 
07:05:28 PM crashed with exit code 0. Restarting... 
07:05:29 PM crashed with exit code 0. Restarting... 
07:05:30 PM crashed with exit code 0. Restarting... 
07:05:31 PM crashed with exit code 0. Restarting... 
07:05:33 PM crashed with exit code 0. Restarting... 
07:05:34 PM crashed with exit code 0. Restarting... 
07:05:35 PM crashed with exit code 0. Restarting... 
07:05:36 PM crashed with exit code 0. Restarting... 
07:05:37 PM crashed with exit code 0. Restarting... 
07:05:38 PM crashed with exit code 0. Restarting... 
07:05:39 PM crashed with exit code 0. Restarting... 
07:05:40 PM crashed with exit code 0. Restarting... 
07:05:41 PM crashed with exit code 0. Restarting... 
07:05:42 PM crashed with exit code 0. Restarting... 
07:05:43 PM crashed with exit code 0. Restarting... 
07:05:45 PM crashed with exit code 0. Restarting... 
07:05:46 PM crashed with exit code 0. Restarting... 
07:05:47 PM crashed with exit code 0. Restarting... 
07:05:48 PM crashed with exit code 0. Restarting... 
07:05:49 PM crashed with exit code 0. Restarting... 
07:05:50 PM crashed with exit code 0. Restarting... 
07:05:51 PM crashed with exit code 0. Restarting... 
07:05:52 PM crashed with exit code 0. Restarting... 
07:05:53 PM crashed with exit code 0. Restarting... 
07:05:54 PM crashed with exit code 0. Restarting... 
07:05:55 PM crashed with exit code 0. Restarting... 
07:05:57 PM crashed with exit code 0. Restarting... 
07:05:58 PM crashed with exit code 0. Restarting... 
07:05:59 PM crashed with exit code 0. Restarting... 
07:06:00 PM crashed with exit code 0. Restarting... 
07:06:01 PM crashed with exit code 0. Restarting... 
07:06:02 PM crashed with exit code 0. Restarting... 
07:06:03 PM crashed with exit code 0. Restarting... 
07:06:04 PM crashed with exit code 0. Restarting... 
07:06:05 PM crashed with exit code 0. Restarting... 
07:06:06 PM crashed with exit code 0. Restarting... 
07:06:08 PM crashed with exit code 0. Restarting... 
07:06:09 PM crashed with exit code 0. Restarting... 
07:06:10 PM crashed with exit code 0. Restarting... 
07:06:11 PM crashed with exit code 0. Restarting... 
07:06:12 PM crashed with exit code 0. Restarting... 
07:06:13 PM crashed with exit code 0. Restarting... 
07:06:14 PM crashed with exit code 0. Restarting... 
07:06:15 PM crashed with exit code 0. Restarting... 
07:06:16 PM crashed with exit code 0. Restarting... 
07:06:17 PM crashed with exit code 0. Restarting... 
07:06:18 PM crashed with exit code 0. Restarting... 
07:06:20 PM crashed with exit code 0. Restarting... 
07:06:21 PM crashed with exit code 0. Restarting... 
07:06:22 PM crashed with exit code 0. Restarting... 
07:06:23 PM crashed with exit code 0. Restarting... 
07:06:24 PM crashed with exit code 0. Restarting... 
07:06:25 PM crashed with exit code 0. Restarting... 
07:06:26 PM crashed with exit code 0. Restarting... 
07:06:27 PM crashed with exit code 0. Restarting... 
07:06:28 PM crashed with exit code 0. Restarting... 
07:06:29 PM crashed with exit code 0. Restarting... 
07:06:30 PM crashed with exit code 0. Restarting... 
07:06:32 PM crashed with exit code 0. Restarting... 
07:06:33 PM crashed with exit code 0. Restarting... 
07:06:34 PM crashed with exit code 0. Restarting... 
07:06:35 PM crashed with exit code 0. Restarting... 
07:06:36 PM crashed with exit code 0. Restarting... 
07:06:37 PM crashed with exit code 0. Restarting... 
07:06:38 PM crashed with exit code 0. Restarting... 
07:06:39 PM crashed with exit code 0. Restarting... 
07:06:40 PM crashed with exit code 0. Restarting... 
07:06:41 PM crashed with exit code 0. Restarting... 
07:06:42 PM crashed with exit code 0. Restarting... 
07:06:44 PM crashed with exit code 0. Restarting... 
07:06:45 PM crashed with exit code 0. Restarting... 
07:06:46 PM crashed with exit code 0. Restarting... 
07:06:47 PM crashed with exit code 0. Restarting... 
07:06:48 PM crashed with exit code 0. Restarting... 
07:06:49 PM crashed with exit code 0. Restarting... 
07:06:50 PM crashed with exit code 0. Restarting... 
07:06:51 PM crashed with exit code 0. Restarting... 
07:06:52 PM crashed with exit code 0. Restarting... 
07:06:53 PM crashed with exit code 0. Restarting... 
07:06:55 PM crashed with exit code 0. Restarting... 
07:06:56 PM crashed with exit code 0. Restarting... 
07:06:57 PM crashed with exit code 0. Restarting... 
07:06:58 PM crashed with exit code 0. Restarting... 
07:06:59 PM crashed with exit code 0. Restarting... 
07:07:00 PM crashed with exit code 0. Restarting... 
07:07:01 PM crashed with exit code 0. Restarting... 
07:07:02 PM crashed with exit code 0. Restarting... 
07:07:03 PM crashed with exit code 0. Restarting... 
07:07:04 PM crashed with exit code 0. Restarting... 
07:07:05 PM crashed with exit code 0. Restarting... 
07:07:07 PM crashed with exit code 0. Restarting... 
07:07:08 PM crashed with exit code 0. Restarting... 
07:07:09 PM crashed with exit code 0. Restarting... 
07:07:10 PM crashed with exit code 0. Restarting... 
07:07:11 PM crashed with exit code 0. Restarting... 
07:07:12 PM crashed with exit code 0. Restarting... 
07:07:13 PM crashed with exit code 0. Restarting... 
07:07:14 PM crashed with exit code 0. Restarting... 
07:07:15 PM crashed with exit code 0. Restarting... 
07:07:16 PM crashed with exit code 0. Restarting... 
07:07:18 PM crashed with exit code 0. Restarting... 
07:07:19 PM crashed with exit code 0. Restarting... 
07:07:20 PM crashed with exit code 0. Restarting... 
07:07:21 PM crashed with exit code 0. Restarting... 
07:07:22 PM crashed with exit code 0. Restarting... 
07:07:23 PM crashed with exit code 0. Restarting... 
07:07:24 PM crashed with exit code 0. Restarting... 
07:07:25 PM crashed with exit code 0. Restarting... 
07:07:26 PM crashed with exit code 0. Restarting... 
07:07:27 PM crashed with exit code 0. Restarting... 
07:07:28 PM crashed with exit code 0. Restarting... 
07:07:30 PM crashed with exit code 0. Restarting... 
07:07:31 PM crashed with exit code 0. Restarting... 
07:07:32 PM crashed with exit code 0. Restarting... 
07:07:33 PM crashed with exit code 0. Restarting... 
07:07:34 PM crashed with exit code 0. Restarting... 
07:07:35 PM crashed with exit code 0. Restarting... 
07:07:36 PM crashed with exit code 0. Restarting... 
07:07:37 PM crashed with exit code 0. Restarting... 
07:07:38 PM crashed with exit code 0. Restarting... 
07:07:39 PM crashed with exit code 0. Restarting... 
07:07:40 PM crashed with exit code 0. Restarting... 
07:07:42 PM crashed with exit code 0. Restarting... 
07:07:43 PM crashed with exit code 0. Restarting... 
07:07:44 PM crashed with exit code 0. Restarting... 
07:07:45 PM crashed with exit code 0. Restarting... 
07:07:46 PM crashed with exit code 0. Restarting... 
07:07:47 PM crashed with exit code 0. Restarting... 
07:07:48 PM crashed with exit code 0. Restarting... 
07:07:49 PM crashed with exit code 0. Restarting... 
07:07:50 PM crashed with exit code 0. Restarting... 
07:07:51 PM crashed with exit code 0. Restarting... 
07:07:53 PM crashed with exit code 0. Restarting... 
07:07:54 PM crashed with exit code 0. Restarting... 
07:07:55 PM crashed with exit code 0. Restarting... 
07:07:56 PM crashed with exit code 0. Restarting... 
07:07:57 PM crashed with exit code 0. Restarting... 
07:07:58 PM crashed with exit code 0. Restarting... 
07:07:59 PM crashed with exit code 0. Restarting... 
07:08:00 PM crashed with exit code 0. Restarting... 
07:08:01 PM crashed with exit code 0. Restarting... 
07:08:02 PM crashed with exit code 0. Restarting... 
07:08:03 PM crashed with exit code 0. Restarting... 
07:08:05 PM crashed with exit code 0. Restarting... 
07:08:06 PM crashed with exit code 0. Restarting... 
07:08:07 PM crashed with exit code 0. Restarting... 
07:08:08 PM crashed with exit code 0. Restarting... 
07:08:09 PM crashed with exit code 0. Restarting... 
07:08:10 PM crashed with exit code 0. Restarting... 
07:08:11 PM crashed with exit code 0. Restarting... 
07:08:12 PM crashed with exit code 0. Restarting... 
07:08:13 PM crashed with exit code 0. Restarting... 
07:08:14 PM crashed with exit code 0. Restarting... 
07:08:15 PM crashed with exit code 0. Restarting... 
07:08:17 PM crashed with exit code 0. Restarting... 
07:08:18 PM crashed with exit code 0. Restarting... 
07:08:19 PM crashed with exit code 0. Restarting... 
07:08:20 PM crashed with exit code 0. Restarting... 
07:08:21 PM crashed with exit code 0. Restarting... 
07:08:22 PM crashed with exit code 0. Restarting... 
07:08:23 PM crashed with exit code 0. Restarting... 
07:08:24 PM crashed with exit code 0. Restarting... 
07:08:25 PM crashed with exit code 0. Restarting... 
07:08:26 PM crashed with exit code 0. Restarting... 
07:08:27 PM crashed with exit code 0. Restarting... 
07:08:29 PM crashed with exit code 0. Restarting... 
07:08:30 PM crashed with exit code 0. Restarting... 
07:08:31 PM crashed with exit code 0. Restarting... 
07:08:32 PM crashed with exit code 0. Restarting... 
07:08:33 PM crashed with exit code 0. Restarting... 
07:08:34 PM crashed with exit code 0. Restarting... 
07:08:35 PM crashed with exit code 0. Restarting... 
07:08:36 PM crashed with exit code 0. Restarting... 
07:08:37 PM crashed with exit code 0. Restarting... 
07:08:38 PM crashed with exit code 0. Restarting... 
07:08:39 PM crashed with exit code 0. Restarting... 
07:08:41 PM crashed with exit code 0. Restarting... 
07:08:42 PM crashed with exit code 0. Restarting... 
07:08:43 PM crashed with exit code 0. Restarting... 
07:08:44 PM crashed with exit code 0. Restarting... 
07:08:45 PM crashed with exit code 0. Restarting... 
07:08:46 PM crashed with exit code 0. Restarting... 
07:08:47 PM crashed with exit code 0. Restarting... 
07:08:48 PM crashed with exit code 0. Restarting... 
07:08:49 PM crashed with exit code 0. Restarting... 
07:08:50 PM crashed with exit code 0. Restarting... 
07:08:52 PM crashed with exit code 0. Restarting... 
07:08:53 PM crashed with exit code 0. Restarting... 
07:08:54 PM crashed with exit code 0. Restarting... 
07:08:55 PM crashed with exit code 0. Restarting... 
07:08:56 PM crashed with exit code 0. Restarting... 
07:08:57 PM crashed with exit code 0. Restarting... 
07:08:58 PM crashed with exit code 0. Restarting... 
07:08:59 PM crashed with exit code 0. Restarting... 
07:09:00 PM crashed with exit code 0. Restarting... 
07:09:01 PM crashed with exit code 0. Restarting... 
07:09:02 PM crashed with exit code 0. Restarting... 
07:09:04 PM crashed with exit code 0. Restarting... 
07:09:05 PM crashed with exit code 0. Restarting... 
07:09:06 PM crashed with exit code 0. Restarting... 
07:09:07 PM crashed with exit code 0. Restarting... 
07:09:08 PM crashed with exit code 0. Restarting... 
07:09:09 PM crashed with exit code 0. Restarting... 
07:09:10 PM crashed with exit code 0. Restarting... 
07:09:11 PM crashed with exit code 0. Restarting... 
07:09:12 PM crashed with exit code 0. Restarting... 
07:09:13 PM crashed with exit code 0. Restarting... 
07:09:14 PM crashed with exit code 0. Restarting... 
07:09:15 PM crashed with exit code 0. Restarting... 
07:09:17 PM crashed with exit code 0. Restarting... 
07:09:18 PM crashed with exit code 0. Restarting... 
07:09:19 PM crashed with exit code 0. Restarting... 
07:09:20 PM crashed with exit code 0. Restarting... 
07:09:21 PM crashed with exit code 0. Restarting... 
07:09:22 PM crashed with exit code 0. Restarting... 
07:09:23 PM crashed with exit code 0. Restarting... 
07:09:24 PM crashed with exit code 0. Restarting... 
07:09:25 PM crashed with exit code 0. Restarting... 
07:09:26 PM crashed with exit code 0. Restarting... 
07:09:28 PM crashed with exit code 0. Restarting... 
07:09:29 PM crashed with exit code 0. Restarting... 
07:09:30 PM crashed with exit code 0. Restarting... 
07:09:31 PM crashed with exit code 0. Restarting... 
07:09:32 PM crashed with exit code 0. Restarting... 
07:09:33 PM crashed with exit code 0. Restarting... 
07:09:34 PM crashed with exit code 0. Restarting... 
07:09:35 PM crashed with exit code 0. Restarting... 
07:09:36 PM crashed with exit code 0. Restarting... 
07:09:37 PM crashed with exit code 0. Restarting... 
07:09:38 PM crashed with exit code 0. Restarting... 
07:09:40 PM crashed with exit code 0. Restarting... 
07:09:41 PM crashed with exit code 0. Restarting... 
07:09:42 PM crashed with exit code 0. Restarting... 
07:09:43 PM crashed with exit code 0. Restarting... 
07:09:44 PM crashed with exit code 0. Restarting... 
07:09:45 PM crashed with exit code 0. Restarting... 
07:09:46 PM crashed with exit code 0. Restarting... 
07:09:47 PM crashed with exit code 0. Restarting... 
07:09:48 PM crashed with exit code 0. Restarting... 
07:09:49 PM crashed with exit code 0. Restarting... 
07:09:50 PM crashed with exit code 0. Restarting... 
07:09:52 PM crashed with exit code 0. Restarting... 
07:09:53 PM crashed with exit code 0. Restarting... 
07:09:54 PM crashed with exit code 0. Restarting... 
07:09:55 PM crashed with exit code 0. Restarting... 
07:09:56 PM crashed with exit code 0. Restarting... 
07:09:57 PM crashed with exit code 0. Restarting... 
07:09:58 PM crashed with exit code 0. Restarting... 
07:09:59 PM crashed with exit code 0. Restarting... 
07:10:00 PM crashed with exit code 0. Restarting... 
07:10:01 PM crashed with exit code 0. Restarting... 
07:10:02 PM crashed with exit code 0. Restarting... 
07:10:04 PM crashed with exit code 0. Restarting... 
07:10:05 PM crashed with exit code 0. Restarting... 
07:10:06 PM crashed with exit code 0. Restarting... 
07:10:07 PM crashed with exit code 0. Restarting... 
07:10:08 PM crashed with exit code 0. Restarting... 
07:10:09 PM crashed with exit code 0. Restarting... 
07:10:10 PM crashed with exit code 0. Restarting... 
07:10:11 PM crashed with exit code 0. Restarting... 
07:10:12 PM crashed with exit code 0. Restarting... 
07:10:13 PM crashed with exit code 0. Restarting... 
07:10:15 PM crashed with exit code 0. Restarting... 
07:10:16 PM crashed with exit code 0. Restarting... 
07:10:17 PM crashed with exit code 0. Restarting... 
07:10:18 PM crashed with exit code 0. Restarting... 
07:10:19 PM crashed with exit code 0. Restarting... 
07:10:20 PM crashed with exit code 0. Restarting... 
07:10:21 PM crashed with exit code 0. Restarting... 
07:10:22 PM crashed with exit code 0. Restarting... 
07:10:23 PM crashed with exit code 0. Restarting... 
07:10:24 PM crashed with exit code 0. Restarting... 
07:10:26 PM crashed with exit code 0. Restarting... 
07:10:27 PM crashed with exit code 0. Restarting... 
07:10:28 PM crashed with exit code 0. Restarting... 
07:10:29 PM crashed with exit code 0. Restarting... 
07:10:30 PM crashed with exit code 0. Restarting... 
07:10:31 PM crashed with exit code 0. Restarting... 
07:10:32 PM crashed with exit code 0. Restarting... 
07:10:33 PM crashed with exit code 0. Restarting... 
07:10:34 PM crashed with exit code 0. Restarting... 
07:10:35 PM crashed with exit code 0. Restarting... 
07:10:36 PM crashed with exit code 0. Restarting... 
07:10:38 PM crashed with exit code 0. Restarting... 
07:10:39 PM crashed with exit code 0. Restarting... 
07:10:40 PM crashed with exit code 0. Restarting... 
07:10:41 PM crashed with exit code 0. Restarting... 
07:10:42 PM crashed with exit code 0. Restarting... 
07:10:43 PM crashed with exit code 0. Restarting... 
07:10:44 PM crashed with exit code 0. Restarting... 
07:10:45 PM crashed with exit code 0. Restarting... 
07:10:46 PM crashed with exit code 0. Restarting... 
07:10:47 PM crashed with exit code 0. Restarting... 
07:10:48 PM crashed with exit code 0. Restarting... 
07:10:50 PM crashed with exit code 0. Restarting... 
07:10:51 PM crashed with exit code 0. Restarting... 
07:10:52 PM crashed with exit code 0. Restarting... 
07:10:53 PM crashed with exit code 0. Restarting... 
07:10:54 PM crashed with exit code 0. Restarting... 
07:10:55 PM crashed with exit code 0. Restarting... 
07:10:56 PM crashed with exit code 0. Restarting... 
07:10:57 PM crashed with exit code 0. Restarting... 
07:10:58 PM crashed with exit code 0. Restarting... 
07:10:59 PM crashed with exit code 0. Restarting... 
07:11:00 PM crashed with exit code 0. Restarting... 
07:11:02 PM crashed with exit code 0. Restarting... 
07:11:03 PM crashed with exit code 0. Restarting... 
07:11:04 PM crashed with exit code 0. Restarting... 
07:11:05 PM crashed with exit code 0. Restarting... 
07:11:06 PM crashed with exit code 0. Restarting... 
07:11:07 PM crashed with exit code 0. Restarting... 
07:11:08 PM crashed with exit code 0. Restarting... 
07:11:09 PM crashed with exit code 0. Restarting... 
07:11:10 PM crashed with exit code 0. Restarting... 
07:11:11 PM crashed with exit code 0. Restarting... 
07:11:12 PM crashed with exit code 0. Restarting... 
07:11:14 PM crashed with exit code 0. Restarting... 
07:11:15 PM crashed with exit code 0. Restarting... 
07:11:16 PM crashed with exit code 0. Restarting... 
07:11:17 PM crashed with exit code 0. Restarting... 
07:11:18 PM crashed with exit code 0. Restarting... 
07:11:19 PM crashed with exit code 0. Restarting... 
07:11:20 PM crashed with exit code 0. Restarting... 
07:11:21 PM crashed with exit code 0. Restarting... 
07:11:22 PM crashed with exit code 0. Restarting... 
07:11:23 PM crashed with exit code 0. Restarting... 
07:11:25 PM crashed with exit code 0. Restarting... 
07:11:26 PM crashed with exit code 0. Restarting... 
07:11:27 PM crashed with exit code 0. Restarting... 
07:11:28 PM crashed with exit code 0. Restarting... 
07:11:29 PM crashed with exit code 0. Restarting... 
07:11:30 PM crashed with exit code 0. Restarting... 
07:11:31 PM crashed with exit code 0. Restarting... 
07:11:32 PM crashed with exit code 0. Restarting... 
07:11:33 PM crashed with exit code 0. Restarting... 
07:11:34 PM crashed with exit code 0. Restarting... 
07:11:35 PM crashed with exit code 0. Restarting... 
07:11:37 PM crashed with exit code 0. Restarting... 
07:11:38 PM crashed with exit code 0. Restarting... 
07:11:39 PM crashed with exit code 0. Restarting... 
07:11:40 PM crashed with exit code 0. Restarting... 
07:11:41 PM crashed with exit code 0. Restarting... 
07:11:42 PM crashed with exit code 0. Restarting... 
07:11:43 PM crashed with exit code 0. Restarting... 
07:11:44 PM crashed with exit code 0. Restarting... 
07:11:45 PM crashed with exit code 0. Restarting... 
07:11:46 PM crashed with exit code 0. Restarting... 
07:11:48 PM crashed with exit code 0. Restarting... 
07:11:49 PM crashed with exit code 0. Restarting... 
07:11:50 PM crashed with exit code 0. Restarting... 
07:11:51 PM crashed with exit code 0. Restarting... 
07:11:52 PM crashed with exit code 0. Restarting... 
07:11:53 PM crashed with exit code 0. Restarting... 
07:11:54 PM crashed with exit code 0. Restarting... 
07:11:55 PM crashed with exit code 0. Restarting... 
07:11:56 PM crashed with exit code 0. Restarting... 
07:11:57 PM crashed with exit code 0. Restarting... 
07:11:58 PM crashed with exit code 0. Restarting... 
07:12:00 PM crashed with exit code 0. Restarting... 
07:12:01 PM crashed with exit code 0. Restarting... 
07:12:02 PM crashed with exit code 0. Restarting... 
07:12:03 PM crashed with exit code 0. Restarting... 
07:12:04 PM crashed with exit code 0. Restarting... 
07:12:05 PM crashed with exit code 0. Restarting... 
07:12:06 PM crashed with exit code 0. Restarting... 
07:12:07 PM crashed with exit code 0. Restarting... 
07:12:08 PM crashed with exit code 0. Restarting... 
07:12:09 PM crashed with exit code 0. Restarting... 
07:12:10 PM crashed with exit code 0. Restarting... 
07:12:11 PM crashed with exit code 0. Restarting... 
07:12:13 PM crashed with exit code 0. Restarting... 
07:12:14 PM crashed with exit code 0. Restarting... 
07:12:15 PM crashed with exit code 0. Restarting... 
07:12:16 PM crashed with exit code 0. Restarting... 
07:12:17 PM crashed with exit code 0. Restarting... 
07:12:18 PM crashed with exit code 0. Restarting... 
07:12:19 PM crashed with exit code 0. Restarting... 
07:12:20 PM crashed with exit code 0. Restarting... 
07:12:21 PM crashed with exit code 0. Restarting... 
07:12:22 PM crashed with exit code 0. Restarting... 
07:12:23 PM crashed with exit code 0. Restarting... 
07:12:24 PM crashed with exit code 0. Restarting... 
07:12:25 PM crashed with exit code 0. Restarting... 
07:12:27 PM crashed with exit code 0. Restarting... 
07:12:28 PM crashed with exit code 0. Restarting... 
07:12:29 PM crashed with exit code 0. Restarting... 
07:12:30 PM crashed with exit code 0. Restarting... 
07:12:31 PM crashed with exit code 0. Restarting... 
07:12:32 PM crashed with exit code 0. Restarting... 
07:12:33 PM crashed with exit code 0. Restarting... 
07:12:34 PM crashed with exit code 0. Restarting... 
07:12:35 PM crashed with exit code 0. Restarting... 
07:12:36 PM crashed with exit code 0. Restarting... 
07:12:37 PM crashed with exit code 0. Restarting... 
07:12:39 PM crashed with exit code 0. Restarting... 
07:12:40 PM crashed with exit code 0. Restarting... 
07:12:41 PM crashed with exit code 0. Restarting... 
07:12:42 PM crashed with exit code 0. Restarting... 
07:12:43 PM crashed with exit code 0. Restarting... 
07:12:44 PM crashed with exit code 0. Restarting... 
07:12:45 PM crashed with exit code 0. Restarting... 
07:12:46 PM crashed with exit code 0. Restarting... 
07:12:47 PM crashed with exit code 0. Restarting... 
07:12:48 PM crashed with exit code 0. Restarting... 
07:12:49 PM crashed with exit code 0. Restarting... 
07:12:50 PM crashed with exit code 0. Restarting... 
07:12:52 PM crashed with exit code 0. Restarting... 
07:12:53 PM crashed with exit code 0. Restarting... 
07:12:54 PM crashed with exit code 0. Restarting... 
07:12:55 PM crashed with exit code 0. Restarting... 
07:12:56 PM crashed with exit code 0. Restarting... 
07:12:57 PM crashed with exit code 0. Restarting... 
07:12:58 PM crashed with exit code 0. Restarting... 
07:12:59 PM crashed with exit code 0. Restarting... 
07:13:00 PM crashed with exit code 0. Restarting... 
07:13:01 PM crashed with exit code 0. Restarting... 
07:13:02 PM crashed with exit code 0. Restarting... 
07:13:04 PM crashed with exit code 0. Restarting... 
07:13:05 PM crashed with exit code 0. Restarting... 
07:13:06 PM crashed with exit code 0. Restarting... 
07:13:07 PM crashed with exit code 0. Restarting... 
07:13:08 PM crashed with exit code 0. Restarting... 
07:13:09 PM crashed with exit code 0. Restarting... 
07:13:10 PM crashed with exit code 0. Restarting... 
07:13:11 PM crashed with exit code 0. Restarting... 
07:13:12 PM crashed with exit code 0. Restarting... 
07:13:13 PM crashed with exit code 0. Restarting... 
07:13:14 PM crashed with exit code 0. Restarting... 
07:13:15 PM crashed with exit code 0. Restarting... 
07:13:17 PM crashed with exit code 0. Restarting... 
07:13:18 PM crashed with exit code 0. Restarting... 
07:13:19 PM crashed with exit code 0. Restarting... 
07:13:20 PM crashed with exit code 0. Restarting... 
07:13:21 PM crashed with exit code 0. Restarting... 
07:13:22 PM crashed with exit code 0. Restarting... 
07:13:23 PM crashed with exit code 0. Restarting... 
07:13:24 PM crashed with exit code 0. Restarting... 
07:13:25 PM crashed with exit code 0. Restarting... 
07:13:26 PM crashed with exit code 0. Restarting... 
07:13:27 PM crashed with exit code 0. Restarting... 
07:13:29 PM crashed with exit code 0. Restarting... 
07:13:30 PM crashed with exit code 0. Restarting... 
07:13:31 PM crashed with exit code 0. Restarting... 
07:13:32 PM crashed with exit code 0. Restarting... 
07:13:33 PM crashed with exit code 0. Restarting... 
07:13:34 PM crashed with exit code 0. Restarting... 
07:13:35 PM crashed with exit code 0. Restarting... 
07:13:36 PM crashed with exit code 0. Restarting... 
07:13:37 PM crashed with exit code 0. Restarting... 
07:13:38 PM crashed with exit code 0. Restarting... 
07:13:39 PM crashed with exit code 0. Restarting... 
07:13:40 PM crashed with exit code 0. Restarting... 
07:13:41 PM crashed with exit code 0. Restarting... 
07:13:43 PM crashed with exit code 0. Restarting... 
07:13:44 PM crashed with exit code 0. Restarting... 
07:13:45 PM crashed with exit code 0. Restarting... 
07:13:46 PM crashed with exit code 0. Restarting... 
07:13:47 PM crashed with exit code 0. Restarting... 
07:13:48 PM crashed with exit code 0. Restarting... 
07:13:49 PM crashed with exit code 0. Restarting... 
07:13:50 PM crashed with exit code 0. Restarting... 
07:13:51 PM crashed with exit code 0. Restarting... 
07:13:52 PM crashed with exit code 0. Restarting... 
07:13:53 PM crashed with exit code 0. Restarting... 
07:13:55 PM crashed with exit code 0. Restarting... 
07:13:56 PM crashed with exit code 0. Restarting... 
07:13:57 PM crashed with exit code 0. Restarting... 
07:13:58 PM crashed with exit code 0. Restarting... 
07:13:59 PM crashed with exit code 0. Restarting... 
07:14:00 PM crashed with exit code 0. Restarting... 
07:14:01 PM crashed with exit code 0. Restarting... 
07:14:02 PM crashed with exit code 0. Restarting... 
07:14:03 PM crashed with exit code 0. Restarting... 
07:14:04 PM crashed with exit code 0. Restarting... 
07:14:05 PM crashed with exit code 0. Restarting... 
07:14:06 PM crashed with exit code 0. Restarting... 
07:14:08 PM crashed with exit code 0. Restarting... 
07:14:09 PM crashed with exit code 0. Restarting... 
07:14:10 PM crashed with exit code 0. Restarting... 
07:14:11 PM crashed with exit code 0. Restarting... 
07:14:12 PM crashed with exit code 0. Restarting... 
07:14:13 PM crashed with exit code 0. Restarting... 
07:14:14 PM crashed with exit code 0. Restarting... 
07:14:15 PM crashed with exit code 0. Restarting... 
07:14:16 PM crashed with exit code 0. Restarting... 
07:14:17 PM crashed with exit code 0. Restarting... 
07:14:18 PM crashed with exit code 0. Restarting... 
07:14:19 PM crashed with exit code 0. Restarting... 
07:14:21 PM crashed with exit code 0. Restarting... 
07:14:22 PM crashed with exit code 0. Restarting... 
07:14:23 PM crashed with exit code 0. Restarting... 
07:14:24 PM crashed with exit code 0. Restarting... 
07:14:25 PM crashed with exit code 0. Restarting... 
07:14:26 PM crashed with exit code 0. Restarting... 
07:14:27 PM crashed with exit code 0. Restarting... 
07:14:28 PM crashed with exit code 0. Restarting... 
07:14:29 PM crashed with exit code 0. Restarting... 
07:14:30 PM crashed with exit code 0. Restarting... 
07:14:31 PM crashed with exit code 0. Restarting... 
07:14:32 PM crashed with exit code 0. Restarting... 
07:14:34 PM crashed with exit code 0. Restarting... 
07:14:35 PM crashed with exit code 0. Restarting... 
07:14:36 PM crashed with exit code 0. Restarting... 
07:14:37 PM crashed with exit code 0. Restarting... 
07:14:38 PM crashed with exit code 0. Restarting... 
07:14:39 PM crashed with exit code 0. Restarting... 
07:14:40 PM crashed with exit code 0. Restarting... 
07:14:41 PM crashed with exit code 0. Restarting... 
07:14:42 PM crashed with exit code 0. Restarting... 
07:14:43 PM crashed with exit code 0. Restarting... 
07:14:44 PM crashed with exit code 0. Restarting... 
07:14:45 PM crashed with exit code 0. Restarting... 
07:14:47 PM crashed with exit code 0. Restarting... 
07:14:48 PM crashed with exit code 0. Restarting... 
07:14:49 PM crashed with exit code 0. Restarting... 
07:14:50 PM crashed with exit code 0. Restarting... 
07:14:51 PM crashed with exit code 0. Restarting... 
07:14:52 PM crashed with exit code 0. Restarting... 
07:14:53 PM crashed with exit code 0. Restarting... 
07:14:54 PM crashed with exit code 0. Restarting... 
07:14:55 PM crashed with exit code 0. Restarting... 
07:14:56 PM crashed with exit code 0. Restarting... 
07:14:57 PM crashed with exit code 0. Restarting... 
07:14:59 PM crashed with exit code 0. Restarting... 
07:15:00 PM crashed with exit code 0. Restarting... 
07:15:01 PM crashed with exit code 0. Restarting... 
07:15:02 PM crashed with exit code 0. Restarting... 
07:15:03 PM crashed with exit code 0. Restarting... 
07:15:04 PM crashed with exit code 0. Restarting... 
07:15:05 PM crashed with exit code 0. Restarting... 
07:15:06 PM crashed with exit code 0. Restarting... 
07:15:07 PM crashed with exit code 0. Restarting... 
07:15:08 PM crashed with exit code 0. Restarting... 
07:15:09 PM crashed with exit code 0. Restarting... 
07:15:10 PM crashed with exit code 0. Restarting... 
07:15:12 PM crashed with exit code 0. Restarting... 
07:15:13 PM crashed with exit code 0. Restarting... 
07:15:14 PM crashed with exit code 0. Restarting... 
07:15:15 PM crashed with exit code 0. Restarting... 
07:15:16 PM crashed with exit code 0. Restarting... 
07:15:17 PM crashed with exit code 0. Restarting... 
07:15:18 PM crashed with exit code 0. Restarting... 
07:15:19 PM crashed with exit code 0. Restarting... 
07:15:20 PM crashed with exit code 0. Restarting... 
07:15:21 PM crashed with exit code 0. Restarting... 
07:15:22 PM crashed with exit code 0. Restarting... 
07:15:24 PM crashed with exit code 0. Restarting... 
07:15:25 PM crashed with exit code 0. Restarting... 
07:15:26 PM crashed with exit code 0. Restarting... 
07:15:27 PM crashed with exit code 0. Restarting... 
07:15:28 PM crashed with exit code 0. Restarting... 
07:15:29 PM crashed with exit code 0. Restarting... 
07:15:30 PM crashed with exit code 0. Restarting... 
07:15:31 PM crashed with exit code 0. Restarting... 
07:15:32 PM crashed with exit code 0. Restarting... 
07:15:33 PM crashed with exit code 0. Restarting... 
07:15:34 PM crashed with exit code 0. Restarting... 
07:15:35 PM crashed with exit code 0. Restarting... 
07:15:37 PM crashed with exit code 0. Restarting... 
07:15:38 PM crashed with exit code 0. Restarting... 
07:15:39 PM crashed with exit code 0. Restarting... 
07:15:40 PM crashed with exit code 0. Restarting... 
